{
  "name": "vagrant-xcat",
  "version": "0.1.0",
  "author": "Dean Taylor",
  "summary": "",
  "license": "Apache-2.0",
  "source": "",
  "dependencies": [
    {
      "name": "puppet/selinux",
      "version_requirement": ">=3.0.0 <4.0.0"
    }
  ],
  "operatingsystem_support": [
    {
      "operatingsystem": "CentOS",
      "operatingsystemrelease": [
        "7"
      ]
    },
    {
      "operatingsystem": "OracleLinux",
      "operatingsystemrelease": [
        "7"
      ]
    },
    {
      "operatingsystem": "RedHat",
      "operatingsystemrelease": [
        "8"
      ]
    },
    {
      "operatingsystem": "Scientific",
      "operatingsystemrelease": [
        "7"
      ]
    }
  ],
  "requirements": [
    {
      "name": "puppet",
      "version_requirement": ">= 4.10.0 < 7.0.0"
    }
  ],
  "pdk-version": "1.13.0",
  "template-url": "pdk-default#1.13.0",
  "template-ref": "1.13.0-0-g66e1443"
}
